3 Results – NBA Playstyle Analysis
…
biggest_increase <- five_year_changes |>
  arrange(desc(five_year_change)) |>
  slice(1)

print("5-Year Changes in 3PA:")

[1] "5-Year Changes in 3PA:"

Code

print(five_year_changes)

# A tibble: 42 × 6
   start_year period x3pa_num x3pa_5yr_ago five_year_change five_year_pct_change
        <dbl> <chr>     <dbl>        <dbl>            <dbl>                <dbl>
 1       1984 1979 …      3.1          2.8            0.300                 10.7
 2       1985 1980 …      3.3          2              1.3                   65  
 3       1986 1981 …      4.7          2.3            2.4                  104. 
 4       1987 1982 …      5            2.3            2.7                  117. 
 5       1988 1983 …      6.6          2.4            4.2                  175  
 6       1989 1984 …      6.6          3.1            3.5                  113. 
 7       1990 1985 …      7.1          3.3            3.8                  115. 
 8       1991 1986 …      7.6          4.7            2.9                   61.7
 9       1992 1987 …      9            5              4                     80  
10       1993 1988 …      9.9          6.6            3.3                   50  
# ℹ 32 more rows
…
